src/wave.vcd
$date
	Fri Nov 25 10:51:45 2022
$end
$version
	Icarus Verilog
$end
$timescale
	1ps
$end
$scope module sopc_tb $end
$var reg 1 ! CLOCK_50 $end
$var reg 1 " rst $end
$scope module sopc0 $end
$var wire 1 ! clk $end
$var wire 1 " rst $end
$var wire 1 # rom_ce $end
$var wire 1 $ mem_we_i $end
$var wire 4 % mem_sel_i [3:0] $end
$var wire 32 & mem_data_o [31:0] $end
$var wire 32 ' mem_data_i [31:0] $end
$var wire 1 ( mem_ce_i $end
$var wire 32 ) mem_addr_i [31:0] $end
$var wire 32 * inst_addr [31:0] $end
$var wire 32 + inst [31:0] $end
$scope module cpu_path0 $end
$var wire 1 ! clk $end
$var wire 32 , rom_addr_o [31:0] $end
$var wire 1 " rst $end
$var wire 1 - wb_LLbit_value_i $end
$var wire 1 . wb_LLbit_we_i $end
$var wire 1 / wb_wreg_i $end
$var wire 1 0 wb_whilo_i $end
$var wire 32 1 wb_wdata_i [31:0] $end
$var wire 5 2 wb_wd_i [4:0] $end
$var wire 32 3 wb_lo_i [31:0] $end
$var wire 32 4 wb_hi_i [31:0] $end
$var wire 1 5 stallreq_from_id $end
$var wire 1 6 stallreq_from_ex $end
$var wire 6 7 stall [5:0] $end
$var wire 1 8 signed_div $end
$var wire 32 9 rom_data_i [31:0] $end
$var wire 1 # rom_ce_o $end
$var wire 1 : reg2_read $end
$var wire 32 ; reg2_data [31:0] $end
$var wire 5 < reg2_addr [4:0] $end
$var wire 1 = reg1_read $end
$var wire 32 > reg1_data [31:0] $end
$var wire 5 ? reg1_addr [4:0] $end
$var wire 1 $ ram_we_o $end
$var wire 4 @ ram_sel_o [3:0] $end
$var wire 32 A ram_data_o [31:0] $end
$var wire 32 B ram_data_i [31:0] $end
$var wire 1 ( ram_ce_o $end
$var wire 32 C ram_addr_o [31:0] $end
$var wire 32 D pc [31:0] $end
$var wire 1 E next_inst_in_delayslot_o $end
$var wire 1 F mem_wreg_o $end
$var wire 1 G mem_wreg_i $end
$var wire 1 H mem_whilo_o $end
$var wire 1 I mem_whilo_i $end
$var wire 32 J mem_wdata_o [31:0] $end
$var wire 32 K mem_wdata_i [31:0] $end
$var wire 5 L mem_wd_o [4:0] $end
$var wire 5 M mem_wd_i [4:0] $end
$var wire 32 N mem_reg2_i [31:0] $end
$var wire 32 O mem_mem_addr_i [31:0] $end
$var wire 32 P mem_lo_o [31:0] $end
$var wire 32 Q mem_lo_i [31:0] $end
$var wire 32 R mem_hi_o [31:0] $end
$var wire 32 S mem_hi_i [31:0] $end
$var wire 8 T mem_aluop_i [7:0] $end
$var wire 32 U lo [31:0] $end
$var wire 1 V is_in_delayslot_i $end
$var wire 1 W id_wreg_o $end
$var wire 5 X id_wd_o [4:0] $end
$var wire 32 Y id_reg2_o [31:0] $end
$var wire 32 Z id_reg1_o [31:0] $end
$var wire 32 [ id_pc_i [31:0] $end
$var wire 32 \ id_link_addr_o [31:0] $end
$var wire 1 ] id_is_in_delayslot_o $end
$var wire 32 ^ id_inst_o [31:0] $end
$var wire 32 _ id_inst_i [31:0] $end
$var wire 1 ` id_branch_flag_o $end
$var wire 3 a id_alusel_o [2:0] $end
$var wire 8 b id_aluop_o [7:0] $end
$var wire 32 c hi [31:0] $end
$var wire 1 d ex_wreg_o $end
$var wire 1 e ex_wreg_i $end
$var wire 1 f ex_whilo_o $end
$var wire 32 g ex_wdata_o [31:0] $end
$var wire 5 h ex_wd_o [4:0] $end
$var wire 5 i ex_wd_i [4:0] $end
$var wire 32 j ex_reg2_o [31:0] $end
$var wire 32 k ex_reg2_i [31:0] $end
$var wire 32 l ex_reg1_i [31:0] $end
$var wire 32 m ex_mem_addr_o [31:0] $end
$var wire 32 n ex_lo_o [31:0] $end
$var wire 32 o ex_link_addr_i [31:0] $end
$var wire 1 p ex_is_in_delayslot_i $end
$var wire 32 q ex_inst_i [31:0] $end
$var wire 32 r ex_hi_o [31:0] $end
$var wire 3 s ex_alusel_i [2:0] $end
$var wire 8 t ex_aluop_o [7:0] $end
$var wire 8 u ex_aluop_i [7:0] $end
$var wire 1 v div_start $end
$var wire 64 w div_result [63:0] $end
$var wire 1 x div_ready $end
$var wire 32 y div_opdata2 [31:0] $end
$var wire 32 z div_opdata1 [31:0] $end
$var wire 32 { branch_addr [31:0] $end
$var wire 1 | LLbit_o $end
$scope module LLbit_reg0 $end
$var wire 1 - LLbit_i $end
$var wire 1 ! clk $end
$var wire 1 } flush $end
$var wire 1 " rst $end
$var wire 1 . we $end
$var reg 1 | LLbit_o $end
$upscope $end
$scope module ctrl0 $end
$var wire 1 " rst $end
$var wire 1 5 stallreq_from_id $end
$var wire 1 6 stallreq_from_ex $end
$var reg 6 ~ stall [5:0] $end
$upscope $end
$scope module div0 $end
$var wire 1 !" annul_i $end
$var wire 1 ! clk $end
$var wire 1 " rst $end
$var wire 1 v start_i $end
$var wire 1 8 signed_div_i $end
$var wire 32 "" opdata2_i [31:0] $end
$var wire 32 #" opdata1_i [31:0] $end
$var wire 33 $" div_temp [32:0] $end
$var reg 6 %" cnt [5:0] $end
$var reg 65 &" dividend [64:0] $end
$var reg 32 '" divisor [31:0] $end
$var reg 1 x ready_o $end
$var reg 64 (" result_o [63:0] $end
$var reg 2 )" state [1:0] $end
$upscope $end
$scope module ex0 $end
$var wire 8 *" aluop_o [7:0] $end
$var wire 1 x div_ready_i $end
$var wire 64 +" div_result_i [63:0] $end
$var wire 32 ," reg1_i_not [31:0] $end
$var wire 32 -" reg2_o [31:0] $end
$var wire 1 " rst $end
$var wire 1 ." sum_overflow $end
$var wire 1 e wreg_i $end
$var wire 5 /" wd_i [4:0] $end
$var wire 1 0 wb_whilo_i $end
$var wire 32 0" wb_lo_i [31:0] $end
$var wire 32 1" wb_hi_i [31:0] $end
$var wire 32 2" sum_res [31:0] $end
$var wire 32 3" reg2_i_complement [31:0] $end
$var wire 32 4" reg2_i [31:0] $end
$var wire 1 5" reg1_lt_reg2 $end
$var wire 32 6" reg1_i [31:0] $end
$var wire 1 H mem_whilo_i $end
$var wire 32 7" mem_lo_i [31:0] $end
$var wire 32 8" mem_hi_i [31:0] $end
$var wire 32 9" mem_addr_o [31:0] $end
$var wire 32 :" lo_i [31:0] $end
$var wire 32 ;" link_addr_i [31:0] $end
$var wire 1 p is_in_delayslot_i $end
$var wire 32 <" inst_i [31:0] $end
$var wire 32 =" hi_i [31:0] $end
$var wire 3 >" alusel_i [2:0] $end
$var wire 8 ?" aluop_i [7:0] $end
$var reg 32 @" HI [31:0] $end
$var reg 32 A" LO [31:0] $end
$var reg 32 B" arithmetic_res [31:0] $end
$var reg 32 C" div_opdata1_o [31:0] $end
$var reg 32 D" div_opdata2_o [31:0] $end
$var reg 1 v div_start_o $end
$var reg 32 E" hi_o [31:0] $end
$var reg 32 F" lo_o [31:0] $end
$var reg 32 G" logic_res [31:0] $end
$var reg 32 H" move_res [31:0] $end
$var reg 64 I" mul_res [63:0] $end
$var reg 32 J" shift_res [31:0] $end
$var reg 1 8 signed_div_o $end
$var reg 1 6 stallreq $end
$var reg 1 K" stallreq_for_div $end
$var reg 5 L" wd_o [4:0] $end
$var reg 32 M" wdata_o [31:0] $end
$var reg 1 f whilo_o $end
$var reg 1 d wreg_o $end
$upscope $end
$scope module ex_mem0 $end
$var wire 1 ! clk $end
$var wire 8 N" ex_aluop [7:0] $end
$var wire 32 O" ex_hi [31:0] $end
$var wire 32 P" ex_lo [31:0] $end
$var wire 32 Q" ex_mem_addr [31:0] $end
$var wire 32 R" ex_reg2 [31:0] $end
$var wire 5 S" ex_wd [4:0] $end
$var wire 32 T" ex_wdata [31:0] $end
$var wire 1 f ex_whilo $end
$var wire 1 d ex_wreg $end
$var wire 1 " rst $end
$var wire 6 U" stall [5:0] $end
$var reg 8 V" mem_aluop [7:0] $end
$var reg 32 W" mem_hi [31:0] $end
$var reg 32 X" mem_lo [31:0] $end
$var reg 32 Y" mem_mem_addr [31:0] $end
$var reg 32 Z" mem_reg2 [31:0] $end
$var reg 5 [" mem_wd [4:0] $end
$var reg 32 \" mem_wdata [31:0] $end
$var reg 1 I mem_whilo $end
$var reg 1 G mem_wreg $end
$upscope $end
$scope module hilo_reg0 $end
$var wire 1 ! clk $end
$var wire 1 " rst $end
$var wire 1 0 we $end
$var wire 32 ]" lo_i [31:0] $end
$var wire 32 ^" hi_i [31:0] $end
$var reg 32 _" hi_o [31:0] $end
$var reg 32 `" lo_o [31:0] $end
$upscope $end
$scope module id0 $end
$var wire 8 a" ex_aluop_i [7:0] $end
$var wire 5 b" ex_wd_i [4:0] $end
$var wire 32 c" ex_wdata_i [31:0] $end
$var wire 1 d ex_wreg_i $end
$var wire 32 d" inst_o [31:0] $end
$var wire 1 " rst $end
$var wire 1 5 stallreq $end
$var wire 5 e" shamt [4:0] $end
$var wire 5 f" rt [4:0] $end
$var wire 5 g" rs [4:0] $end
$var wire 32 h" reg2_data_i [31:0] $end
$var wire 32 i" reg1_data_i [31:0] $end
$var wire 5 j" rd [4:0] $end
$var wire 1 k" pre_inst_is_load $end
$var wire 32 l" pc_plus_8 [31:0] $end
$var wire 32 m" pc_plus_4 [31:0] $end
$var wire 32 n" pc_i [31:0] $end
$var wire 6 o" op [5:0] $end
$var wire 1 F mem_wreg_i $end
$var wire 32 p" mem_wdata_i [31:0] $end
$var wire 5 q" mem_wd_i [4:0] $end
$var wire 1 V is_in_delayslot_i $end
$var wire 32 r" inst_i [31:0] $end
$var wire 32 s" imm_zext [31:0] $end
$var wire 32 t" imm_sext [31:0] $end
$var wire 32 u" imm_jext [31:0] $end
$var wire 32 v" imm_bext [31:0] $end
$var wire 16 w" imm [15:0] $end
$var wire 6 x" funct [5:0] $end
$var reg 8 y" aluop_o [7:0] $end
$var reg 3 z" alusel_o [2:0] $end
$var reg 32 {" branch_addr_o [31:0] $end
$var reg 1 ` branch_flag_o $end
$var reg 32 |" imm_fnl [31:0] $end
$var reg 1 }" instvalid $end
$var reg 1 ] is_in_delayslot_o $end
$var reg 32 ~" link_addr_o [31:0] $end
$var reg 1 E next_inst_in_delayslot_o $end
$var reg 5 !# reg1_addr_o [4:0] $end
$var reg 32 "# reg1_o [31:0] $end
$var reg 1 = reg1_read_o $end
$var reg 5 ## reg2_addr_o [4:0] $end
$var reg 32 $# reg2_o [31:0] $end
$var reg 1 : reg2_read_o $end
$var reg 1 %# stallreq_for_reg1_loadrelate $end
$var reg 1 &# stallreq_for_reg2_loadrelate $end
$var reg 5 '# wd_o [4:0] $end
$var reg 1 W wreg_o $end
$upscope $end
$scope module id_ex0 $end
$var wire 1 ! clk $end
$var wire 8 (# id_aluop [7:0] $end
$var wire 3 )# id_alusel [2:0] $end
$var wire 32 *# id_inst [31:0] $end
$var wire 1 ] id_is_in_delayslot $end
$var wire 32 +# id_link_addr [31:0] $end
$var wire 32 ,# id_reg1 [31:0] $end
$var wire 32 -# id_reg2 [31:0] $end
$var wire 5 .# id_wd [4:0] $end
$var wire 1 W id_wreg $end
$var wire 1 E next_inst_in_delayslot_i $end
$var wire 1 " rst $end
$var wire 6 /# stall [5:0] $end
$var reg 8 0# ex_aluop [7:0] $end
$var reg 3 1# ex_alusel [2:0] $end
$var reg 32 2# ex_inst [31:0] $end
$var reg 1 p ex_is_in_delayslot $end
$var reg 32 3# ex_link_addr [31:0] $end
$var reg 32 4# ex_reg1 [31:0] $end
$var reg 32 5# ex_reg2 [31:0] $end
$var reg 5 6# ex_wd [4:0] $end
$var reg 1 e ex_wreg $end
$var reg 1 V is_in_delayslot_o $end
$upscope $end
$scope module if_id0 $end
$var wire 1 ! clk $end
$var wire 1 " rst $end
$var wire 6 7# stall [5:0] $end
$var wire 32 8# if_pc [31:0] $end
$var wire 32 9# if_inst [31:0] $end
$var reg 32 :# id_inst [31:0] $end
$var reg 32 ;# id_pc [31:0] $end
$upscope $end
$scope module mem0 $end
$var wire 1 <# LLbit_i $end
$var wire 8 =# aluop_i [7:0] $end
$var wire 32 ># hi_i [31:0] $end
$var wire 32 ?# lo_i [31:0] $end
$var wire 32 @# mem_addr_i [31:0] $end
$var wire 1 $ mem_we_o $end
$var wire 32 A# reg2_i [31:0] $end
$var wire 1 " rst $end
$var wire 1 B# wb_LLbit_value_i $end
$var wire 1 C# wb_LLbit_we_i $end
$var wire 5 D# wd_i [4:0] $end
$var wire 32 E# wdata_i [31:0] $end
$var wire 1 I whilo_i $end
$var wire 1 G wreg_i $end
$var wire 32 F# zero32 [31:0] $end
$var wire 32 G# mem_data_i [31:0] $end
$var reg 1 H# LLbit $end
$var reg 1 I# LLbit_value_o $end
$var reg 1 J# LLbit_we_o $end
$var reg 32 K# hi_o [31:0] $end
$var reg 32 L# lo_o [31:0] $end
$var reg 32 M# mem_addr_o [31:0] $end
$var reg 1 ( mem_ce_o $end
$var reg 32 N# mem_data_o [31:0] $end
$var reg 4 O# mem_sel_o [3:0] $end
$var reg 1 P# mem_we $end
$var reg 5 Q# wd_o [4:0] $end
$var reg 32 R# wdata_o [31:0] $end
$var reg 1 H whilo_o $end
$var reg 1 F wreg_o $end
$upscope $end
$scope module mem_wb0 $end
$var wire 1 ! clk $end
$var wire 1 S# mem_LLbit_value $end
$var wire 1 T# mem_LLbit_we $end
$var wire 32 U# mem_hi [31:0] $end
$var wire 32 V# mem_lo [31:0] $end
$var wire 5 W# mem_wd [4:0] $end
$var wire 32 X# mem_wdata [31:0] $end
$var wire 1 H mem_whilo $end
$var wire 1 F mem_wreg $end
$var wire 1 " rst $end
$var wire 6 Y# stall [5:0] $end
$var reg 1 Z# wb_LLbit_value $end
$var reg 1 [# wb_LLbit_we $end
$var reg 32 \# wb_hi [31:0] $end
$var reg 32 ]# wb_lo [31:0] $end
$var reg 5 ^# wb_wd [4:0] $end
$var reg 32 _# wb_wdata [31:0] $end
$var reg 1 0 wb_whilo $end
$var reg 1 / wb_wreg $end
$upscope $end
$scope module pc_reg0 $end
$var wire 32 `# branch_addr_i [31:0] $end
$var wire 1 ` branch_flag_i $end
$var wire 1 ! clk $end
$var wire 1 " rst $end
$var wire 6 a# stall [5:0] $end
$var reg 1 # ce $end
$var reg 32 b# pc [31:0] $end
$upscope $end
$scope module regfile1 $end
$var wire 1 ! clk $end
$var wire 5 c# raddr1 [4:0] $end
$var wire 5 d# raddr2 [4:0] $end
$var wire 1 = re1 $end
$var wire 1 : re2 $end
$var wire 1 " rst $end
$var wire 5 e# waddr [4:0] $end
$var wire 32 f# wdata [31:0] $end
$var wire 1 / we $end
$var reg 32 g# rdata1 [31:0] $end
$var reg 32 h# rdata2 [31:0] $end
$upscope $end
$upscope $end
$scope module data_ram0 $end
$var wire 32 i# addr [31:0] $end
$var wire 1 ( ce $end
$var wire 1 ! clk $end
$var wire 32 j# data_i [31:0] $end
$var wire 4 k# sel [3:0] $end
$var wire 1 $ we $end
$var reg 32 l# data_o [31:0] $end
$upscope $end
$scope module inst_rom0 $end
$var wire 32 m# addr [31:0] $end
$var wire 1 # ce $end
$var wire 1 n# clk $end
$var reg 32 o# inst [31:0] $end
$upscope $end
$upscope $end
$upscope $end
$enddefinitions $end
#0
$dumpvars
b0 o#
zn#
bx m#
b0 l#
b0 k#
b0 j#
b0 i#
b0 h#
b0 g#
bx f#
bx e#
b0 d#
b0 c#
bx b#
b0 a#
b0 `#
bx _#
bx ^#
bx ]#
bx \#
x[#
xZ#
b0 Y#
b0 X#
b0 W#
b0 V#
b0 U#
zT#
zS#
b0 R#
b0 Q#
0P#
b0 O#
b0 N#
b0 M#
b0 L#
b0 K#
xJ#
xI#
0H#
b0 G#
b0 F#
bx E#
bx D#
zC#
zB#
bx A#
bx @#
bx ?#
bx >#
bx =#
z<#
bx ;#
bx :#
b0 9#
bx 8#
b0 7#
bx 6#
bx 5#
bx 4#
bx 3#
bx 2#
bx 1#
bx 0#
b0 /#
b0 .#
b0 -#
b0 ,#
b0 +#
bx *#
b0 )#
b0 (#
b0 '#
0&#
0%#
b0 $#
b0 ##
b0 "#
b0 !#
b0 ~"
1}"
b0 |"
b0 {"
b0 z"
b0 y"
bx x"
bx w"
bx v"
bx00 u"
bx t"
b0xxxxxxxxxxxxxxxx s"
bx r"
b0 q"
b0 p"
bx o"
bx n"
bx m"
bx l"
xk"
bx j"
b0 i"
b0 h"
bx g"
bx f"
bx e"
bx d"
b0 c"
bx b"
bx a"
bx `"
bx _"
bx ^"
bx ]"
bx \"
bx ["
bx Z"
bx Y"
bx X"
bx W"
bx V"
b0 U"
b0 T"
bx S"
bx R"
bx Q"
b0 P"
b0 O"
bx N"
b0 M"
bx L"
0K"
b0 J"
bx I"
b0 H"
b0 G"
b0 F"
b0 E"
b0 D"
b0 C"
b0 B"
b0 A"
b0 @"
bx ?"
bx >"
bx ="
bx <"
bx ;"
bx :"
bx 9"
b0 8"
b0 7"
bx 6"
x5"
bx 4"
bx 3"
bx 2"
bx 1"
bx 0"
bx /"
x."
bx -"
bx ,"
bx +"
bx *"
bx )"
bx ("
bx '"
bx &"
bx %"
bx $"
b0 #"
b0 ""
0!"
b0 ~
0}
x|
b0 {
b0 z
b0 y
xx
bx w
0v
bx u
bx t
bx s
b0 r
bx q
xp
bx o
b0 n
bx m
bx l
bx k
bx j
bx i
bx h
b0 g
0f
xe
xd
bx c
b0 b
b0 a
0`
bx _
bx ^
0]
b0 \
bx [
b0 Z
b0 Y
b0 X
0W
xV
bx U
bx T
bx S
b0 R
bx Q
b0 P
bx O
bx N
bx M
b0 L
bx K
b0 J
xI
0H
xG
0F
0E
bx D
b0 C
b0 B
b0 A
b0 @
b0 ?
b0 >
0=
b0 <
b0 ;
0:
b0 9
08
b0 7
06
05
bx 4
bx 3
bx 2
bx 1
x0
x/
z.
z-
bx ,
b0 +
bx *
b0 )
0(
b0 '
b0 &
b0 %
0$
0#
1"
0!
$end
#9000
bx @"
bx A"
x]
bx <
bx ##
bx d#
bx ?
bx !#
bx c#
bx X
bx '#
bx .#
b1111 %
b1111 @
b1111 O#
b1111 k#
1H
bx P
bx 7"
bx L#
bx V#
bx R
bx 8"
bx K#
bx U#
bx J
bx p"
bx R#
bx X#
xF
bx L
bx q"
bx Q#
bx W#
zH#
0"
#10000
1:
b10 a
b10 z"
b10 )#
b1111100 b
b1111100 y"
b1111100 (#
1W
b0 <
b0 ##
b0 d#
b0 ?
b0 !#
b0 c#
b0 X
b0 '#
b0 .#
0]
0d
b0 J
b0 p"
b0 R#
b0 X#
b100100000100010000000000000110 +
b100100000100010000000000000110 9
b100100000100010000000000000110 9#
b100100000100010000000000000110 o#
0k"
0."
bx0000000000000000000000000000 u"
b0 s"
b0 t"
b0 w"
b0 x"
b0 e"
b0 j"
b0 f"
b0 g"
b0 o"
b0 2"
b0 3"
b11111111111111111111111111111111 ,"
05"
b0 ^
b0 d"
b0 *#
b0 _
b0 r"
b0 :#
0V
b0 o
b0 ;"
b0 3#
0e
b0 j
b0 -"
b0 R"
b0 k
b0 4"
b0 5#
b0 l
b0 6"
b0 4#
b0 s
b0 >"
b0 1#
b0 t
b0 *"
b0 N"
b0 a"
b0 u
b0 ?"
b0 0#
b0 K
b0 \"
b0 E#
zZ#
z[#
10
1#
b0 *
b0 ,
b0 m#
b0 D
b0 8#
b0 b#
1!
#20000
0!
#30000
b110 Y
b110 $#
b110 -#
b110 |"
1=
b10001 X
b10001 '#
b10001 .#
b10001 <
b10001 ##
b10001 d#
0F
1d
b0 h
b0 L"
b0 S"
b0 b"
0:
1W
b100 a
b100 z"
b100 )#
b1010110 b
b1010110 y"
b1010110 (#
b100100000100100000000000000101 +
b100100000100100000000000000101 9
b100100000100100000000000000101 9#
b100100000100100000000000000101 o#
b0 m
b0 9"
b0 Q"
b110 s"
b110 t"
b110 w"
b110 x"
b10001 f"
b1001 o"
b10001000000000000011000 u"
b0 1
b0 _#
b0 f#
b0 N
b0 Z"
b0 A#
b0 T
b0 V"
b0 =#
0G
b0 q
b0 <"
b0 2#
0p
1e
b0 i
b0 /"
b0 6#
b10 s
b10 >"
b10 1#
b1111100 t
b1111100 *"
b1111100 N"
b1111100 a"
b1111100 u
b1111100 ?"
b1111100 0#
b100100000100010000000000000110 ^
b100100000100010000000000000110 d"
b100100000100010000000000000110 *#
b100100000100010000000000000110 _
b100100000100010000000000000110 r"
b100100000100010000000000000110 :#
b1000 l"
b11100 v"
b100 m"
b0 [
b0 n"
b0 ;#
b100 *
b100 ,
b100 m#
b100 D
b100 8#
b100 b#
1!
#40000
0!
#50000
b101 Y
b101 $#
b101 -#
b110 g
b110 M"
b110 T"
b110 c"
b10010 <
b10010 ##
b10010 d#
b101 |"
1=
1W
b10010 X
b10010 '#
b10010 .#
b100 a
b100 z"
b100 )#
b1010110 b
b1010110 y"
b1010110 (#
b10001 h
b10001 L"
b10001 S"
b10001 b"
1F
b0 L
b0 q"
b0 Q#
b0 W#
b100000000100010000000000000011 +
b100000000100010000000000000011 9
b100000000100010000000000000011 9#
b100000000100010000000000000011 o#
b110 B"
b10010000000000000010100 u"
b101 s"
b101 t"
b101 w"
b101 x"
b10010 f"
b110 m
b110 9"
b110 Q"
15"
b110 2"
b110 3"
b100100000100100000000000000101 ^
b100100000100100000000000000101 d"
b100100000100100000000000000101 *#
b100100000100100000000000000101 _
b100100000100100000000000000101 r"
b100100000100100000000000000101 :#
b1100 l"
b11100 v"
b1000 m"
b100 [
b100 n"
b100 ;#
b100100000100010000000000000110 q
b100100000100010000000000000110 <"
b100100000100010000000000000110 2#
b10001 i
b10001 /"
b10001 6#
b110 j
b110 -"
b110 R"
b110 k
b110 4"
b110 5#
b100 s
b100 >"
b100 1#
b1010110 t
b1010110 *"
b1010110 N"
b1010110 a"
b1010110 u
b1010110 ?"
b1010110 0#
b0 O
b0 Y"
b0 @#
b1111100 T
b1111100 V"
b1111100 =#
1G
b0 M
b0 ["
b0 D#
0/
b1000 *
b1000 ,
b1000 m#
b1000 D
b1000 8#
b1000 b#
1!
#60000
0!
#70000
b11 Y
b11 $#
b11 -#
b101 g
b101 M"
b101 T"
b101 c"
b10001 <
b10001 ##
b10001 d#
b110 J
b110 p"
b110 R#
b110 X#
b10001 L
b10001 q"
b10001 Q#
b10001 W#
b10010 h
b10010 L"
b10010 S"
b10010 b"
b11 |"
1=
1W
b10001 X
b10001 '#
b10001 .#
b100 a
b100 z"
b100 )#
b1010101 b
b1010101 y"
b1010101 (#
b100000000100100000000000000100 +
b100000000100100000000000000100 9
b100000000100100000000000000100 9#
b100000000100100000000000000100 o#
b101 B"
b101 m
b101 9"
b101 Q"
b101 2"
b101 3"
b10001000000000000001100 u"
b11 s"
b11 t"
b11 w"
b11 x"
b10001 f"
b1000 o"
1/
b0 2
b0 ^#
b0 e#
b110 N
b110 Z"
b110 A#
b110 O
b110 Y"
b110 @#
b1010110 T
b1010110 V"
b1010110 =#
b110 K
b110 \"
b110 E#
b10001 M
b10001 ["
b10001 D#
b100100000100100000000000000101 q
b100100000100100000000000000101 <"
b100100000100100000000000000101 2#
b10010 i
b10010 /"
b10010 6#
b101 j
b101 -"
b101 R"
b101 k
b101 4"
b101 5#
b100000000100010000000000000011 ^
b100000000100010000000000000011 d"
b100000000100010000000000000011 *#
b100000000100010000000000000011 _
b100000000100010000000000000011 r"
b100000000100010000000000000011 :#
b10000 l"
b11000 v"
b1100 m"
b1000 [
b1000 n"
b1000 ;#
b1100 *
b1100 ,
b1100 m#
b1100 D
b1100 8#
b1100 b#
1!
#80000
0!
#90000
b100 Y
b100 $#
b100 -#
b11 g
b11 M"
b11 T"
b11 c"
b10010 <
b10010 ##
b10010 d#
b100 |"
1=
1W
b10010 X
b10010 '#
b10010 .#
b100 a
b100 z"
b100 )#
b1010101 b
b1010101 y"
b1010101 (#
b10001 h
b10001 L"
b10001 S"
b10001 b"
b101 J
b101 p"
b101 R#
b101 X#
b10010 L
b10010 q"
b10010 Q#
b10010 W#
b10001100101001100000100000 +
b10001100101001100000100000 9
b10001100101001100000100000 9#
b10001100101001100000100000 o#
b11 B"
b10010000000000000010000 u"
b100 s"
b100 t"
b100 w"
b100 x"
b10010 f"
b11 m
b11 9"
b11 Q"
b11 2"
b11 3"
b100000000100100000000000000100 ^
b100000000100100000000000000100 d"
b100000000100100000000000000100 *#
b100000000100100000000000000100 _
b100000000100100000000000000100 r"
b100000000100100000000000000100 :#
b10100 l"
b100000 v"
b10000 m"
b1100 [
b1100 n"
b1100 ;#
b100000000100010000000000000011 q
b100000000100010000000000000011 <"
b100000000100010000000000000011 2#
b10001 i
b10001 /"
b10001 6#
b11 j
b11 -"
b11 R"
b11 k
b11 4"
b11 5#
b1010101 t
b1010101 *"
b1010101 N"
b1010101 a"
b1010101 u
b1010101 ?"
b1010101 0#
b101 N
b101 Z"
b101 A#
b101 O
b101 Y"
b101 @#
b101 K
b101 \"
b101 E#
b10010 M
b10010 ["
b10010 D#
b110 1
b110 _#
b110 f#
b10001 2
b10001 ^#
b10001 e#
b10000 *
b10000 ,
b10000 m#
b10000 D
b10000 8#
b10000 b#
1!
#100000
0!
#110000
b101 ;
b101 h"
b101 h#
b11 Z
b11 "#
b11 ,#
b110 >
b110 i"
b110 g#
b100 g
b100 M"
b100 T"
b100 c"
1:
b10001 ?
b10001 !#
b10001 c#
b11 J
b11 p"
b11 R#
b11 X#
b10001 L
b10001 q"
b10001 Q#
b10001 W#
b10010 h
b10010 L"
b10010 S"
b10010 b"
b0 |"
1=
1W
b10011 X
b10011 '#
b10011 .#
b100 a
b100 z"
b100 )#
b100000 b
b100000 y"
b100000 (#
b10010100011001100000100010 +
b10010100011001100000100010 9
b10010100011001100000100010 9#
b10010100011001100000100010 o#
b100 B"
b100 m
b100 9"
b100 Q"
b100 2"
b100 3"
b1000110010100110000010000000 u"
b1001100000100000 s"
b11111111111111111001100000100000 t"
b1001100000100000 w"
b100000 x"
b10011 j"
b10001 g"
b0 o"
b101 1
b101 _#
b101 f#
b10010 2
b10010 ^#
b10010 e#
b11 N
b11 Z"
b11 A#
b11 O
b11 Y"
b11 @#
b1010101 T
b1010101 V"
b1010101 =#
b11 K
b11 \"
b11 E#
b10001 M
b10001 ["
b10001 D#
b100000000100100000000000000100 q
b100000000100100000000000000100 <"
b100000000100100000000000000100 2#
b10010 i
b10010 /"
b10010 6#
b100 j
b100 -"
b100 R"
b100 k
b100 4"
b100 5#
b10001100101001100000100000 ^
b10001100101001100000100000 d"
b10001100101001100000100000 *#
b10001100101001100000100000 _
b10001100101001100000100000 r"
b10001100101001100000100000 :#
b11000 l"
b11111111111111100110000010010100 v"
b10100 m"
b10000 [
b10000 n"
b10000 ;#
b10100 *
b10100 ,
b10100 m#
b10100 D
b10100 8#
b10100 b#
1!
#120000
0!
#130000
b11 ;
b11 h"
b11 h#
b11 Y
b11 $#
b11 -#
b100 Z
b100 "#
b100 ,#
b10001 <
b10001 ##
b10001 d#
b10010 ?
b10010 !#
b10010 c#
1:
1=
1W
b100 a
b100 z"
b100 )#
b100010 b
b100010 y"
b100010 (#
b111 g
b111 M"
b111 T"
b111 c"
b10011 h
b10011 L"
b10011 S"
b10011 b"
b100 J
b100 p"
b100 R#
b100 X#
b10010 L
b10010 q"
b10010 Q#
b10010 W#
b101 >
b101 i"
b101 g#
b10001100101001100000100100 +
b10001100101001100000100100 9
b10001100101001100000100100 9#
b10001100101001100000100100 o#
b1001010001100110000010001000 u"
b1001100000100010 s"
b11111111111111111001100000100010 t"
b1001100000100010 w"
b100010 x"
b10001 f"
b10010 g"
b11111111111111111111111111111100 ,"
b111 B"
b10010100011001100000100010 ^
b10010100011001100000100010 d"
b10010100011001100000100010 *#
b10010100011001100000100010 _
b10010100011001100000100010 r"
b10010100011001100000100010 :#
b11100 l"
b11111111111111100110000010100000 v"
b11000 m"
b10100 [
b10100 n"
b10100 ;#
b10001100101001100000100000 q
b10001100101001100000100000 <"
b10001100101001100000100000 2#
b10011 i
b10011 /"
b10011 6#
b111 2"
b11111111111111111001100000100011 m
b11111111111111111001100000100011 9"
b11111111111111111001100000100011 Q"
b11 l
b11 6"
b11 4#
b100000 t
b100000 *"
b100000 N"
b100000 a"
b100000 u
b100000 ?"
b100000 0#
b100 N
b100 Z"
b100 A#
b100 O
b100 Y"
b100 @#
b100 K
b100 \"
b100 E#
b10010 M
b10010 ["
b10010 D#
b11 1
b11 _#
b11 f#
b10001 2
b10001 ^#
b10001 e#
b11000 *
b11000 ,
b11000 m#
b11000 D
b11000 8#
b11000 b#
1!
#140000
0!
